<?xml version="1.0" encoding="UTF-8"?>
<!DOCTYPE svg PUBLIC '-//W3C//DTD SVG 1.0//EN'
          'http://www.w3.org/TR/2001/REC-SVG-20010904/DTD/svg10.dtd'>
<svg fill-opacity="1" xmlns:xlink="http://www.w3.org/1999/xlink" color-rendering="auto" color-interpolation="auto" text-rendering="auto" stroke="black" stroke-linecap="square" width="410" stroke-miterlimit="10" shape-rendering="auto" stroke-opacity="1" fill="black" stroke-dasharray="none" font-weight="normal" stroke-width="1" viewBox="0 10 410 350" height="350" xmlns="http://www.w3.org/2000/svg" font-family="'Dialog'" font-style="normal" stroke-linejoin="miter" font-size="12px" stroke-dashoffset="0" image-rendering="auto"
><!--Generated by the Batik Graphics2D SVG Generator--><defs id="genericDefs"
  /><g
  ><defs id="defs1"
    ><clipPath clipPathUnits="userSpaceOnUse" id="clipPath1"
      ><path d="M0 0 L2147483647 0 L2147483647 2147483647 L0 2147483647 L0 0 Z"
      /></clipPath
      ><clipPath clipPathUnits="userSpaceOnUse" id="clipPath2"
      ><path d="M0 0 L0 150 L240 150 L240 0 Z"
      /></clipPath
      ><clipPath clipPathUnits="userSpaceOnUse" id="clipPath3"
      ><path d="M0 0 L0 20 L220 20 L220 0 Z"
      /></clipPath
      ><clipPath clipPathUnits="userSpaceOnUse" id="clipPath4"
      ><path d="M0 0 L0 50 L100 50 L100 0 Z"
      /></clipPath
      ><clipPath clipPathUnits="userSpaceOnUse" id="clipPath5"
      ><path d="M0 0 L0 80 L100 80 L100 0 Z"
      /></clipPath
      ><clipPath clipPathUnits="userSpaceOnUse" id="clipPath6"
      ><path d="M0 0 L0 60 L30 60 L30 0 Z"
      /></clipPath
      ><clipPath clipPathUnits="userSpaceOnUse" id="clipPath7"
      ><path d="M0 0 L0 120 L140 120 L140 0 Z"
      /></clipPath
      ><clipPath clipPathUnits="userSpaceOnUse" id="clipPath8"
      ><path d="M0 0 L0 120 L130 120 L130 0 Z"
      /></clipPath
    ></defs
    ><g fill="rgb(255,255,170)" fill-opacity="0.4902" transform="translate(140,30)" stroke-opacity="0.4902" stroke="rgb(255,255,170)"
    ><rect x="0.5" y="0.5" clip-path="url(#clipPath2)" width="238.5" rx="20" ry="20" height="148.5" stroke="none"
    /></g
    ><g stroke-dasharray="1,2" stroke-miterlimit="5" transform="translate(140,30)" stroke-linecap="butt"
    ><rect x="0.5" y="0.5" clip-path="url(#clipPath2)" fill="none" width="238.5" rx="20" ry="20" height="148.5"
    /></g
    ><g fill="rgb(0,0,255)" fill-opacity="0.4902" transform="translate(150,40)" stroke-opacity="0.4902" stroke="rgb(0,0,255)"
    ><rect x="0.5" width="218.5" height="18.5" y="0.5" clip-path="url(#clipPath3)" stroke="none"
    /></g
    ><g fill="white" font-size="10px" font-weight="bold" font-family="sans-serif" transform="translate(150,40)" stroke="white"
    ><text x="13" xml:space="preserve" y="14.375" clip-path="url(#clipPath3)" stroke="none"
      >Docker Virtual LAN: 172.24.0.0/16</text
    ></g
    ><g fill="rgb(255,255,255)" fill-opacity="0" transform="translate(270,90)" stroke-opacity="0" stroke="rgb(255,255,255)"
    ><rect x="0.5" y="0.5" clip-path="url(#clipPath4)" width="98.5" rx="10" ry="10" height="48.5" stroke="none"
    /></g
    ><g fill="blue" stroke-width="2" transform="translate(270,90)" stroke="blue"
    ><rect x="0.5" y="0.5" clip-path="url(#clipPath4)" fill="none" width="98.5" rx="10" ry="10" height="48.5"
      /><text x="17" xml:space="preserve" y="14.875" clip-path="url(#clipPath4)" font-family="sans-serif" stroke="none"
      >172.24.0.3</text
      ><text x="26" y="43.375" clip-path="url(#clipPath4)" font-family="sans-serif" stroke="none" font-weight="bold" xml:space="preserve"
      >Client3</text
    ></g
    ><g fill="rgb(255,255,255)" fill-opacity="0" transform="translate(150,90)" stroke-opacity="0" stroke="rgb(255,255,255)"
    ><rect x="0.5" y="0.5" clip-path="url(#clipPath5)" width="98.5" rx="16" ry="16" height="78.5" stroke="none"
    /></g
    ><g fill="blue" stroke-width="2" transform="translate(150,90)" stroke="blue"
    ><rect x="0.5" y="0.5" clip-path="url(#clipPath5)" fill="none" width="98.5" rx="16" ry="16" height="78.5"
      /><text x="17" xml:space="preserve" y="15.625" clip-path="url(#clipPath5)" font-family="sans-serif" stroke="none"
      >172.24.0.2</text
      ><text x="14" y="44.125" clip-path="url(#clipPath5)" font-family="sans-serif" stroke="none" font-weight="bold" xml:space="preserve"
      >WG Server</text
      ><text x="9" xml:space="preserve" y="72.625" clip-path="url(#clipPath5)" font-family="sans-serif" stroke="none"
      >10.100.100.1</text
    ></g
    ><g fill="rgb(255,255,255)" fill-opacity="0" transform="translate(290,260)" stroke-opacity="0" stroke="rgb(255,255,255)"
    ><rect x="0.5" y="0.5" clip-path="url(#clipPath5)" width="98.5" rx="16" ry="16" height="78.5" stroke="none"
    /></g
    ><g fill="blue" stroke-width="2" transform="translate(290,260)" stroke="blue"
    ><rect x="0.5" y="0.5" clip-path="url(#clipPath5)" fill="none" width="98.5" rx="16" ry="16" height="78.5"
      /><text x="9" xml:space="preserve" y="15.625" clip-path="url(#clipPath5)" font-family="sans-serif" stroke="none"
      >192.168.10.2</text
      ><text x="12" y="44.125" clip-path="url(#clipPath5)" font-family="sans-serif" stroke="none" font-weight="bold" xml:space="preserve"
      >WG Client2</text
      ><text x="9" xml:space="preserve" y="72.625" clip-path="url(#clipPath5)" font-family="sans-serif" stroke="none"
      >192.168.12.2</text
    ></g
    ><g fill="rgb(255,255,255)" fill-opacity="0" transform="translate(20,260)" stroke-opacity="0" stroke="rgb(255,255,255)"
    ><rect x="0.5" y="0.5" clip-path="url(#clipPath5)" width="98.5" rx="16" ry="16" height="78.5" stroke="none"
    /></g
    ><g fill="blue" stroke-width="2" transform="translate(20,260)" stroke="blue"
    ><rect x="0.5" y="0.5" clip-path="url(#clipPath5)" fill="none" width="98.5" rx="16" ry="16" height="78.5"
      /><text x="9" xml:space="preserve" y="15.625" clip-path="url(#clipPath5)" font-family="sans-serif" stroke="none"
      >192.168.10.1</text
      ><text x="12" y="44.125" clip-path="url(#clipPath5)" font-family="sans-serif" stroke="none" font-weight="bold" xml:space="preserve"
      >WG Client1</text
      ><text x="9" xml:space="preserve" y="72.625" clip-path="url(#clipPath5)" font-family="sans-serif" stroke="none"
      >192.168.11.2</text
    ></g
    ><g fill="blue" stroke-width="2" transform="translate(310,50)" stroke="blue"
    ><path fill="none" d="M10.5 10.5 L10.5 40.5" clip-path="url(#clipPath6)"
    /></g
    ><g fill="blue" stroke-width="2" transform="translate(190,50)" stroke="blue"
    ><path fill="none" d="M10.5 10.5 L10.5 40.5" clip-path="url(#clipPath6)"
    /></g
    ><g stroke-linecap="butt" transform="translate(220,160)" fill="red" stroke-dasharray="8,5" stroke="red" stroke-width="2" stroke-miterlimit="5"
    ><path fill="none" d="M120.5 100.5 L10.5 10.5" clip-path="url(#clipPath7)"
    /></g
    ><g stroke-linecap="butt" transform="translate(60,160)" fill="red" stroke-dasharray="8,5" stroke="red" stroke-width="2" stroke-miterlimit="5"
    ><path fill="none" d="M10.5 100.5 L110.5 10.5" clip-path="url(#clipPath8)"
    /></g
  ></g
></svg
>
