<?xml version="1.0" encoding="UTF-8"?>
<!DOCTYPE svg PUBLIC '-//W3C//DTD SVG 1.0//EN'
          'http://www.w3.org/TR/2001/REC-SVG-20010904/DTD/svg10.dtd'>
<svg fill-opacity="1" xmlns:xlink="http://www.w3.org/1999/xlink" color-rendering="auto" color-interpolation="auto" text-rendering="auto" stroke="black" stroke-linecap="square" width="560" stroke-miterlimit="10" shape-rendering="auto" stroke-opacity="1" fill="black" stroke-dasharray="none" font-weight="normal" stroke-width="1" viewBox="30 0 560 330" height="330" xmlns="http://www.w3.org/2000/svg" font-family="'Dialog'" font-style="normal" stroke-linejoin="miter" font-size="12px" stroke-dashoffset="0" image-rendering="auto"
><!--Generated by the Batik Graphics2D SVG Generator--><defs id="genericDefs"
  /><g
  ><defs id="defs1"
    ><clipPath clipPathUnits="userSpaceOnUse" id="clipPath1"
      ><path d="M0 0 L2147483647 0 L2147483647 2147483647 L0 2147483647 L0 0 Z"
      /></clipPath
      ><clipPath clipPathUnits="userSpaceOnUse" id="clipPath2"
      ><path d="M0 0 L0 110 L270 110 L270 0 Z"
      /></clipPath
      ><clipPath clipPathUnits="userSpaceOnUse" id="clipPath3"
      ><path d="M0 0 L0 120 L520 120 L520 0 Z"
      /></clipPath
      ><clipPath clipPathUnits="userSpaceOnUse" id="clipPath4"
      ><path d="M0 0 L0 50 L100 50 L100 0 Z"
      /></clipPath
      ><clipPath clipPathUnits="userSpaceOnUse" id="clipPath5"
      ><path d="M0 0 L0 150 L150 150 L150 0 Z"
      /></clipPath
      ><clipPath clipPathUnits="userSpaceOnUse" id="clipPath6"
      ><path d="M0 0 L0 150 L60 150 L60 0 Z"
      /></clipPath
      ><clipPath clipPathUnits="userSpaceOnUse" id="clipPath7"
      ><path d="M0 0 L0 150 L190 150 L190 0 Z"
      /></clipPath
    ></defs
    ><g fill="rgb(255,255,255)" fill-opacity="0" transform="translate(170,20)" stroke-opacity="0" stroke="rgb(255,255,255)"
    ><ellipse rx="134.25" ry="54.25" clip-path="url(#clipPath2)" cx="134.75" cy="54.75" stroke="none"
    /></g
    ><g stroke-dasharray="1,2" stroke-miterlimit="5" transform="translate(170,20)" stroke-linecap="butt"
    ><ellipse rx="134.25" fill="none" ry="54.25" clip-path="url(#clipPath2)" cx="134.75" cy="54.75"
      /><text x="116" font-size="14px" y="18.1094" clip-path="url(#clipPath2)" font-family="sans-serif" stroke="none" xml:space="preserve"
      >cloud</text
    ></g
    ><g fill="rgb(255,255,170)" fill-opacity="0.4902" transform="translate(50,190)" stroke-opacity="0.4902" stroke="rgb(255,255,170)"
    ><rect x="0.5" y="0.5" clip-path="url(#clipPath3)" width="518.5" rx="20" ry="20" height="118.5" stroke="none"
    /></g
    ><g stroke-dasharray="1,2" stroke-miterlimit="5" transform="translate(50,190)" stroke-linecap="butt"
    ><rect x="0.5" y="0.5" clip-path="url(#clipPath3)" fill="none" width="518.5" rx="20" ry="20" height="118.5"
      /><text x="220" font-size="14px" y="113.7227" clip-path="url(#clipPath3)" font-family="sans-serif" stroke="none" xml:space="preserve"
      >Virtual LAN</text
    ></g
    ><g fill="rgb(255,255,255)" fill-opacity="0" transform="translate(250,50)" stroke-opacity="0" stroke="rgb(255,255,255)"
    ><rect x="0.5" y="0.5" clip-path="url(#clipPath4)" width="98.5" rx="10" ry="10" height="48.5" stroke="none"
    /></g
    ><g fill="blue" stroke-width="2" transform="translate(250,50)" stroke="blue"
    ><rect x="0.5" y="0.5" clip-path="url(#clipPath4)" fill="none" width="98.5" rx="10" ry="10" height="48.5"
      /><text x="12" font-size="14px" y="30.0547" clip-path="url(#clipPath4)" font-family="sans-serif" stroke="none" xml:space="preserve"
      >WG Server</text
    ></g
    ><g fill="rgb(255,255,255)" fill-opacity="0" transform="translate(440,220)" stroke-opacity="0" stroke="rgb(255,255,255)"
    ><rect x="0.5" y="0.5" clip-path="url(#clipPath4)" width="98.5" rx="10" ry="10" height="48.5" stroke="none"
    /></g
    ><g fill="blue" stroke-width="2" transform="translate(440,220)" stroke="blue"
    ><rect x="0.5" y="0.5" clip-path="url(#clipPath4)" fill="none" width="98.5" rx="10" ry="10" height="48.5"
      /><text x="8" font-size="14px" y="30.0547" clip-path="url(#clipPath4)" font-family="sans-serif" stroke="none" xml:space="preserve"
      >WG Client...</text
    ></g
    ><g fill="rgb(255,255,255)" fill-opacity="0" transform="translate(220,220)" stroke-opacity="0" stroke="rgb(255,255,255)"
    ><rect x="0.5" y="0.5" clip-path="url(#clipPath4)" width="98.5" rx="10" ry="10" height="48.5" stroke="none"
    /></g
    ><g fill="blue" stroke-width="2" transform="translate(220,220)" stroke="blue"
    ><rect x="0.5" y="0.5" clip-path="url(#clipPath4)" fill="none" width="98.5" rx="10" ry="10" height="48.5"
      /><text x="10" font-size="14px" y="30.0547" clip-path="url(#clipPath4)" font-family="sans-serif" stroke="none" xml:space="preserve"
      >WG Client2</text
    ></g
    ><g fill="rgb(255,255,255)" fill-opacity="0" transform="translate(70,220)" stroke-opacity="0" stroke="rgb(255,255,255)"
    ><rect x="0.5" y="0.5" clip-path="url(#clipPath4)" width="98.5" rx="10" ry="10" height="48.5" stroke="none"
    /></g
    ><g fill="blue" stroke-width="2" transform="translate(70,220)" stroke="blue"
    ><rect x="0.5" y="0.5" clip-path="url(#clipPath4)" fill="none" width="98.5" rx="10" ry="10" height="48.5"
      /><text x="10" font-size="14px" y="30.0547" clip-path="url(#clipPath4)" font-family="sans-serif" stroke="none" xml:space="preserve"
      >WG Client1</text
    ></g
    ><g stroke-linecap="butt" transform="translate(310,90)" fill="red" stroke-dasharray="8,5" stroke="red" stroke-width="2" stroke-miterlimit="5"
    ><path fill="none" d="M130.5 130.5 L10.5 10.5" clip-path="url(#clipPath5)"
    /></g
    ><g stroke-linecap="butt" transform="translate(260,90)" fill="red" stroke-dasharray="8,5" stroke="red" stroke-width="2" stroke-miterlimit="5"
    ><path fill="none" d="M10.5 130.5 L40.5 10.5" clip-path="url(#clipPath6)"
    /></g
    ><g stroke-linecap="butt" transform="translate(110,90)" fill="red" stroke-dasharray="8,5" stroke="red" stroke-width="2" stroke-miterlimit="5"
    ><path fill="none" d="M10.5 130.5 L170.5 10.5" clip-path="url(#clipPath7)"
    /></g
  ></g
></svg
>
